learning-journey/Buraq_Core_SV32I_5SP/RISCV_SSC.vcd
$version Generated by VerilatedVcd $end
$date Fri Jun 19 06:52:48 2020
 $end
$timescale   1ns $end

 $scope module TOP $end
  $var wire 32 "5 Reg_Out [31:0] $end
  $var wire 10 "4 address_in [9:0] $end
  $var wire  1 "1 clock $end
  $var wire 32 "3 program_in [31:0] $end
  $var wire  1 "2 reset $end
  $scope module RISCV32I_SV $end
   $var wire 32 "7 AddrWidth [31:0] $end
   $var wire 10 j D_mem_addr_in [9:0] $end
   $var wire 32 i D_mem_data_in [31:0] $end
   $var wire 32 $ D_mem_out [31:0] $end
   $var wire  1 l D_mem_readEn $end
   $var wire  1 m D_mem_writeEn $end
   $var wire 32 "6 DataWidth [31:0] $end
   $var wire 10 % Ins_mem_addr_in [9:0] $end
   $var wire 32 "9 Ins_mem_data_in [31:0] $end
   $var wire 32 # Ins_mem_out [31:0] $end
   $var wire  1 ": Ins_mem_readEn $end
   $var wire  1 "; Ins_mem_writeEn $end
   $var wire 32 "8 RegAddrWidth [31:0] $end
   $var wire 32 "5 Reg_Out [31:0] $end
   $var wire 10 "4 address_in [9:0] $end
   $var wire  1 "1 clock $end
   $var wire  3 k function3 [2:0] $end
   $var wire 32 "3 program_in [31:0] $end
   $var wire  1 "2 reset $end
   $scope module Core $end
    $var wire  3 z ALU_OPCODE [2:0] $end
    $var wire 32 - ALU_RESULT [31:0] $end
    $var wire 32 o ALUresult [31:0] $end
    $var wire 32 "7 AddrWidth [31:0] $end
    $var wire  1 ' BRANCH $end
    $var wire 32 ( BRANCH_TARG [31:0] $end
    $var wire  5 r DEST_REG [4:0] $end
    $var wire  5 s DEST_REGISTER [4:0] $end
    $var wire 32 "6 DataWidth [31:0] $end
    $var wire 10 j Data_mem_address [9:0] $end
    $var wire 32 i Data_mem_dataIn [31:0] $end
    $var wire 32 $ Data_mem_dataOut [31:0] $end
    $var wire  1 l Data_mem_read_en $end
    $var wire  1 m Data_mem_write_en $end
    $var wire  1 "# EN_reg_file $end
    $var wire  1 , FLUSH $end
    $var wire  3 { FUNC_3 [2:0] $end
    $var wire  2 | FUNC_7 [1:0] $end
    $var wire 10 % Inst_mem_address [9:0] $end
    $var wire 32 "9 Inst_mem_dataIn [31:0] $end
    $var wire 32 # Inst_mem_dataOut [31:0] $end
    $var wire  1 ": Inst_mem_read_en $end
    $var wire  1 "; Inst_mem_write_en $end
    $var wire 32 * JALR_TARG [31:0] $end
    $var wire 32 ) JAL_TARG [31:0] $end
    $var wire  1 w MEM_READ_EN_DEC_EX $end
    $var wire  1 v MEM_TO_REG_DEC_EX $end
    $var wire  1 x MEM_WRITE_EN_DEC_EX $end
    $var wire  1 "$ Mem2Reg $end
    $var wire 32 "" Mem_Data_WB [31:0] $end
    $var wire 32 n Mem_WB_Data [31:0] $end
    $var wire  2 & NEXT_PC_SEL [1:0] $end
    $var wire 32 p PROGRAM_COUNTER [31:0] $end
    $var wire  1 } RF_EN_DEC_to_EX $end
    $var wire  1 ~ RF_EN_EX_to_WB $end
    $var wire 32 "8 RegAddrWidth [31:0] $end
    $var wire 32 t SOURCE1 [31:0] $end
    $var wire 32 u SOURCE2 [31:0] $end
    $var wire 32 + WB_DATA [31:0] $end
    $var wire  5 q WB_REG [4:0] $end
    $var wire 10 "4 address_in [9:0] $end
    $var wire 32 y aluOutput [31:0] $end
    $var wire  1 "1 clock $end
    $var wire  3 k func3 [2:0] $end
    $var wire  1 "! mem_to_register $end
    $var wire 32 "3 program_in [31:0] $end
    $var wire  5 q reg_WB [4:0] $end
    $var wire 32 "5 reg_out [31:0] $end
    $var wire  1 "2 reset $end
    $scope module Decode_unit $end
     $var wire  3 z ALUOp [2:0] $end
     $var wire  3 ; ALU_Op [2:0] $end
     $var wire 32 ( BRANCH_TARGET [31:0] $end
     $var wire  1 ' Branch $end
     $var wire  1 "& Branch_control_unit $end
     $var wire  1 0 Branch_controller $end
     $var wire 32 "6 DataWidth [31:0] $end
     $var wire  1 , FLUSH_REG $end
     $var wire 32 - Forwarded_Data_EX [31:0] $end
     $var wire 32 y Forwarded_Data_MEM1 [31:0] $end
     $var wire 32 $ Forwarded_Data_MEM2 [31:0] $end
     $var wire 32 + Forwarded_Data_WB [31:0] $end
     $var wire 32 6 Forwarded_SOURCE_A [31:0] $end
     $var wire 32 7 Forwarded_SOURCE_B [31:0] $end
     $var wire 32 < I_imm [31:0] $end
     $var wire 32 / ImmOUT [31:0] $end
     $var wire  2 3 ImmSel [1:0] $end
     $var wire 32 "% Instruction [31:0] $end
     $var wire 32 # Instruction_IN [31:0] $end
     $var wire 32 * JALR_TARGET [31:0] $end
     $var wire 32 ) JAL_TARGET [31:0] $end
     $var wire 32 n Mem_Data [31:0] $end
     $var wire  1 l Memory_Read_EN $end
     $var wire 32 "6 No_of_registers [31:0] $end
     $var wire  2 8 OPERAND_A_SEL [1:0] $end
     $var wire  1 9 OPERAND_B_SEL $end
     $var wire 32 p PC [31:0] $end
     $var wire 32 "8 RegAddrWidth [31:0] $end
     $var wire 32 "5 RegOut [31:0] $end
     $var wire 32 4 SOURCE_A [31:0] $end
     $var wire 32 5 SOURCE_B [31:0] $end
     $var wire  5 "' SRC_Reg_1 [4:0] $end
     $var wire  5 "( SRC_Reg_2 [4:0] $end
     $var wire 32 = S_imm [31:0] $end
     $var wire 32 > U_imm [31:0] $end
     $var wire 32 t alu_src1 [31:0] $end
     $var wire 32 u alu_src2 [31:0] $end
     $var wire  1 "1 clock $end
     $var wire  5 "- destReg [4:0] $end
     $var wire  5 r destReg_EX [4:0] $end
     $var wire  5 s destReg_MEM [4:0] $end
     $var wire  5 q destReg_WB [4:0] $end
     $var wire  3 ") func3 [2:0] $end
     $var wire  2 "* func7 [1:0] $end
     $var wire  3 { function3 [2:0] $end
     $var wire  2 | function7 [1:0] $end
     $var wire 25 "/ instruction_imm [24:0] $end
     $var wire  1 w memRead $end
     $var wire  1 x memWrite $end
     $var wire  1 "+ mem_Read $end
     $var wire  1 ", mem_write $end
     $var wire  1 v memtoReg $end
     $var wire  1 "+ memtoRegister $end
     $var wire  2 & next_PC_sel [1:0] $end
     $var wire  3 ? op_A_sel [2:0] $end
     $var wire  3 @ op_B_sel [2:0] $end
     $var wire  7 ". opcode [6:0] $end
     $var wire 32 1 readData1 [31:0] $end
     $var wire 32 2 readData2 [31:0] $end
     $var wire  1 } regEN_EX $end
     $var wire  1 ~ regEN_MEM $end
     $var wire  1 "# regEN_WB $end
     $var wire  1 : regFileWriteEn $end
     $var wire  1 } regWriteEn $end
     $var wire  1 "2 reset $end
     $var wire 32 + writeBackData [31:0] $end
     $var wire  5 r writeBackReg [4:0] $end
     $scope module Branch_Controller_Unit $end
      $var wire  1 0 Branch $end
      $var wire 32 "6 DataWidth [31:0] $end
      $var wire 32 6 SRC_1 [31:0] $end
      $var wire 32 7 SRC_2 [31:0] $end
      $var wire  3 ") function3 [2:0] $end
     $upscope $end
     $scope module Control $end
      $var wire  3 ; ALUOp [2:0] $end
      $var wire  7 "C AUIPC [6:0] $end
      $var wire  7 "@ BRANCH [6:0] $end
      $var wire  7 "= I_TYPE [6:0] $end
      $var wire  7 "B JAL [6:0] $end
      $var wire  7 "A JALR [6:0] $end
      $var wire  7 "? LOAD [6:0] $end
      $var wire  7 "D LUI [6:0] $end
      $var wire  7 "< R_TYPE [6:0] $end
      $var wire  7 "> STORE [6:0] $end
      $var wire  1 "& branch_op $end
      $var wire  2 3 extend_sel [1:0] $end
      $var wire  1 "+ memRead $end
      $var wire  1 ", memWrite $end
      $var wire  1 "+ memtoReg $end
      $var wire  2 & next_PC_sel [1:0] $end
      $var wire  7 ". opcode [6:0] $end
      $var wire  2 8 operand_A_sel [1:0] $end
      $var wire  1 9 operand_B_sel $end
      $var wire  1 : regWriteEn $end
     $upscope $end
     $scope module Forwarding_For_Data_Hazard $end
      $var wire 32 "6 DataWidth [31:0] $end
      $var wire  5 "' ID_EX_RS1 [4:0] $end
      $var wire  5 "( ID_EX_RS2 [4:0] $end
      $var wire  1 l Mem_Read_EN $end
      $var wire  3 ? Operand_A_control [2:0] $end
      $var wire  3 @ Operand_B_control [2:0] $end
      $var wire 32 "8 RegAddrWidth [31:0] $end
      $var wire  1 } Reg_File_EN_EXE_stage $end
      $var wire  1 ~ Reg_File_EN_Memory_stage $end
      $var wire  1 "# Reg_File_EN_WrBk_stage $end
      $var wire  5 r WriteBack_reg_EXE_stage [4:0] $end
      $var wire  5 s WriteBack_reg_Memory_stage [4:0] $end
      $var wire  5 q WriteBack_reg_WrBk_stage [4:0] $end
     $upscope $end
     $scope module ImmediateGeneration $end
      $var wire 32 "6 DataWidth [31:0] $end
      $var wire 12 b I_type [11:0] $end
      $var wire 13 e SB_type [12:0] $end
      $var wire 12 d S_type [11:0] $end
      $var wire 21 f UJ_type [20:0] $end
      $var wire 20 c U_type [19:0] $end
      $var wire 32 < i_type [31:0] $end
      $var wire 25 "/ instruction [24:0] $end
      $var wire 32 p pc [31:0] $end
      $var wire 32 = s_type [31:0] $end
      $var wire 32 ( sb_type [31:0] $end
      $var wire 32 > u_type [31:0] $end
      $var wire 32 ) uj_type [31:0] $end
     $upscope $end
     $scope module RegisterFile $end
      $var wire 32 "8 AddrRegWidth [31:0] $end
      $var wire 32 "6 DataWidth [31:0] $end
      $var wire 32 "5 Reg_Out [31:0] $end
      $var wire 32 "6 Registers [31:0] $end
      $var wire  1 "1 clock $end
      $var wire 32 a i [31:0] $end
      $var wire 32 "6 number_of_registers [31:0] $end
      $var wire 32 1 readData1 [31:0] $end
      $var wire 32 2 readData2 [31:0] $end
      $var wire 32 A regFile(0) [31:0] $end
      $var wire 32 B regFile(1) [31:0] $end
      $var wire 32 K regFile(10) [31:0] $end
      $var wire 32 L regFile(11) [31:0] $end
      $var wire 32 M regFile(12) [31:0] $end
      $var wire 32 N regFile(13) [31:0] $end
      $var wire 32 O regFile(14) [31:0] $end
      $var wire 32 P regFile(15) [31:0] $end
      $var wire 32 Q regFile(16) [31:0] $end
      $var wire 32 R regFile(17) [31:0] $end
      $var wire 32 S regFile(18) [31:0] $end
      $var wire 32 T regFile(19) [31:0] $end
      $var wire 32 C regFile(2) [31:0] $end
      $var wire 32 U regFile(20) [31:0] $end
      $var wire 32 V regFile(21) [31:0] $end
      $var wire 32 W regFile(22) [31:0] $end
      $var wire 32 X regFile(23) [31:0] $end
      $var wire 32 Y regFile(24) [31:0] $end
      $var wire 32 Z regFile(25) [31:0] $end
      $var wire 32 [ regFile(26) [31:0] $end
      $var wire 32 \ regFile(27) [31:0] $end
      $var wire 32 ] regFile(28) [31:0] $end
      $var wire 32 ^ regFile(29) [31:0] $end
      $var wire 32 D regFile(3) [31:0] $end
      $var wire 32 _ regFile(30) [31:0] $end
      $var wire 32 ` regFile(31) [31:0] $end
      $var wire 32 E regFile(4) [31:0] $end
      $var wire 32 F regFile(5) [31:0] $end
      $var wire 32 G regFile(6) [31:0] $end
      $var wire 32 H regFile(7) [31:0] $end
      $var wire 32 I regFile(8) [31:0] $end
      $var wire 32 J regFile(9) [31:0] $end
      $var wire  1 "2 reset $end
      $var wire  5 "' source1 [4:0] $end
      $var wire  5 "( source2 [4:0] $end
      $var wire 32 + writeData [31:0] $end
      $var wire  5 q writeDataSel [4:0] $end
      $var wire  1 "# writeEn $end
     $upscope $end
    $upscope $end
    $scope module Execute_unit $end
     $var wire  6 g ALU_MUX_CONTROL [5:0] $end
     $var wire 32 - ALU_Result [31:0] $end
     $var wire  3 z ALU_op [2:0] $end
     $var wire 32 y ALU_result_delay [31:0] $end
     $var wire 32 "7 AddrWidth [31:0] $end
     $var wire 10 j D_MEM_ADDR [9:0] $end
     $var wire 32 i DataIN_MEM [31:0] $end
     $var wire 32 n DataMemDataIn [31:0] $end
     $var wire 32 "6 DataWidth [31:0] $end
     $var wire  3 { Func3 [2:0] $end
     $var wire  2 | Func7 [1:0] $end
     $var wire  3 k Func_3 [2:0] $end
     $var wire  1 l MEM_READ $end
     $var wire  1 m MEM_WRITE $end
     $var wire  1 "! MEM_to_REG $end
     $var wire 10 h Mem_addr [9:0] $end
     $var wire 32 t Operand_A [31:0] $end
     $var wire 32 u Operand_B [31:0] $end
     $var wire 32 "8 RegAddrWidth [31:0] $end
     $var wire  1 ~ Reg_EN $end
     $var wire  5 s WB_REG [4:0] $end
     $var wire  1 "1 clock $end
     $var wire  1 v memtoreg $end
     $var wire  1 w readEn $end
     $var wire  1 } regfileEN $end
     $var wire  1 "2 reset $end
     $var wire  5 r writeBack_reg [4:0] $end
     $var wire  1 x writeEn $end
     $scope module alu $end
      $var wire  6 g ALU_Control [5:0] $end
      $var wire 32 - ALU_result [31:0] $end
      $var wire 32 "6 DataWidth [31:0] $end
      $var wire 32 t operand_A [31:0] $end
      $var wire 32 u operand_B [31:0] $end
      $var wire  5 "0 shamt [4:0] $end
     $upscope $end
     $scope module aluControl $end
      $var wire  6 g ALU_Control [5:0] $end
      $var wire  3 z ALU_Operation [2:0] $end
      $var wire  3 { func3 [2:0] $end
      $var wire  2 | func7 [1:0] $end
     $upscope $end
    $upscope $end
    $scope module Fetch_unit $end
     $var wire 32 "7 AddrWidth [31:0] $end
     $var wire  1 ' Branch $end
     $var wire 32 ( Branch_target [31:0] $end
     $var wire 32 "6 DataWidth [31:0] $end
     $var wire 10 % Inst_mem_address [9:0] $end
     $var wire 32 ) Jal_target [31:0] $end
     $var wire 32 * Jalr_target [31:0] $end
     $var wire 32 . PC [31:0] $end
     $var wire 32 p PC_OUT [31:0] $end
     $var wire 32 . PC_reg [31:0] $end
     $var wire  1 "1 clock $end
     $var wire  1 , flush $end
     $var wire  2 & next_PC_sel [1:0] $end
     $var wire  1 "2 reset $end
    $upscope $end
    $scope module MEM_WB_REG $end
     $var wire 32 y ALU_result_IN [31:0] $end
     $var wire 32 o ALU_result_OUT [31:0] $end
     $var wire 32 "6 DataWidth [31:0] $end
     $var wire 32 $ Mem_Data_IN [31:0] $end
     $var wire 32 "" Mem_Data_OUT [31:0] $end
     $var wire  1 "! Mem_to_Reg_IN $end
     $var wire  1 "$ Mem_to_Reg_OUT $end
     $var wire 32 "8 RegAddrWidth [31:0] $end
     $var wire  1 ~ RegEn_IN $end
     $var wire  1 "# RegEn_OUT $end
     $var wire  5 s WB_REG_IN [4:0] $end
     $var wire  5 q WB_REG_OUT [4:0] $end
     $var wire  1 "1 clock $end
     $var wire  1 "2 reset $end
    $upscope $end
    $scope module WriteBack_unit $end
     $var wire 32 "6 DataWidth [31:0] $end
     $var wire 32 o Data_from_ALU [31:0] $end
     $var wire 32 "" Data_from_Mem [31:0] $end
     $var wire 32 "8 RegAddrWidth [31:0] $end
     $var wire 32 + WriteBackData [31:0] $end
     $var wire  1 "$ memtoreg $end
     $var wire  5 q writeBack_reg [4:0] $end
     $var wire  5 q writeback_reg [4:0] $end
    $upscope $end
   $upscope $end
   $scope module DataMemory $end
    $var wire 32 "7 AddrWidth [31:0] $end
    $var wire 10 j Address [9:0] $end
    $var wire 32 i DataIn [31:0] $end
    $var wire 32 $ DataOut [31:0] $end
    $var wire 32 "6 DataWidth [31:0] $end
    $var wire 32 "E MEM_DEPTH [31:0] $end
    $var wire  1 "1 clock $end
    $var wire  3 k func_3 [2:0] $end
    $var wire  1 l readEn $end
    $var wire  1 m writeEn $end
   $upscope $end
   $scope module InstructionMemory $end
    $var wire 32 "7 AddrWidth [31:0] $end
    $var wire 32 "E DEPTH [31:0] $end
    $var wire 32 "6 DataWidth [31:0] $end
    $var wire 10 % address [9:0] $end
    $var wire  1 "1 clock $end
    $var wire 32 "9 i_data [31:0] $end
    $var wire  1 "; i_write $end
    $var wire 32 # readData [31:0] $end
   $upscope $end
  $upscope $end
 $upscope $end
$enddefinitions $end


#0
b00001010000100010010011000100011 #
b00000000000000000000000000000000 $
b0000000001 %
b00 &
0'
b11111111111111111111011101000010 (
b11111111111100010000011101010000 )
b00000000000000000000000101010000 *
b00000000000000000000000000000000 +
0,
b00000000000000000000000000000000 -
b00000000000000000000000000000100 .
b11111111111111111111111101010000 /
00
b00000000000000000000001000000000 1
b00000000000000000000000000000000 2
b00 3
b00000000000000000000001000000000 4
b11111111111111111111111101010000 5
b00000000000000000000001000000000 6
b00000000000000000000000000000000 7
b00 8
19
1:
b001 ;
b11111111111111111111111101010000 <
b11111111111111111111111101000010 =
b11110101000000010000000000000000 >
b000 ?
b000 @
b00000000000000000000000000000000 A
b00000000000000000000000000000000 B
b00000000000000000000001000000000 C
b00000000000000000000000000000000 D
b00000000000000000000000000000000 E
b00000000000000000000000000000000 F
b00000000000000000000000000000000 G
b00000000000000000000000000000000 H
b00000000000000000000000000000000 I
b00000000000000000000000000000000 J
b00000000000000000000000000000000 K
b00000000000000000000000000000000 L
b00000000000000000000000000000000 M
b00000000000000000000000000000000 N
b00000000000000000000000000000000 O
b00000000000000000000000000000000 P
b00000000000000000000000000000000 Q
b00000000000000000000000000000000 R
b00000000000000000000000000000000 S
b00000000000000000000000000000000 T
b00000000000000000000000000000000 U
b00000000000000000000000000000000 V
b00000000000000000000000000000000 W
b00000000000000000000000000000000 X
b00000000000000000000000000000000 Y
b00000000000000000000000000000000 Z
b00000000000000000000000000000000 [
b00000000000000000000000000000000 \
b00000000000000000000000000000000 ]
b00000000000000000000000000000000 ^
b00000000000000000000000000000000 _
b00000000000000000000000000000000 `
b00000000000000000000000000100000 a
b111101010000 b
b11110101000000010000 c
b111101000010 d
b1011101000010 e
b100010000011101010000 f
b000000 g
b0000000000 h
b00000000000000000000000000000000 i
b0000000000 j
b000 k
0l
0m
b00000000000000000000000000000000 n
b00000000000000000000000000000000 o
b00000000000000000000000000000000 p
b00000 q
b00000 r
b00000 s
b00000000000000000000000000000000 t
b00000000000000000000000000000000 u
0v
0w
0x
b00000000000000000000000000000000 y
b000 z
b000 {
b00 |
0}
0~
0"!
b00000000000000000000000000000000 ""
0"#
0"$
b11110101000000010000000100010011 "%
0"&
b00010 "'
b10000 "(
b000 ")
b11 "*
0"+
0",
b00010 "-
b0010011 ".
b1111010100000001000000010 "/
b00000 "0
1"1
0"2
b00000000000000000000000000000000 "3
b0000000000 "4
b00000000000000000000000000000000 "5
b00000000000000000000000000100000 "6
b00000000000000000000000000001010 "7
b00000000000000000000000000000101 "8
b00000000000000000000000000000000 "9
1":
0";
b0110011 "<
b0010011 "=
b0100011 ">
b0000011 "?
b1100011 "@
b1100111 "A
b1101111 "B
b0010111 "C
b0110111 "D
b00000000000000000000010000000000 "E
#1
0"1
#2
b00001010100000010010010000100011 #
b0000000010 %
b00000000000000000000000010110000 (
b00000000000000010010100010100100 )
b00000000000000000000000111111100 *
b00000000000000000000000101010000 -
b00000000000000000000000000001000 .
b00000000000000000000000010101100 /
b01 3
b00000000000000000000000101010000 4
b00000000000000000000000010101100 5
b00000000000000000000000101010000 6
0:
b101 ;
b00000000000000000000000010100001 <
b00000000000000000000000010101100 =
b00001010000100010010000000000000 >
b011 ?
b000010100001 b
b00001010000100010010 c
b000010101100 d
b0000010101100 e
b000010010100010100000 f
b0101010000 h
b00000000000000000000000000000100 p
b00010 r
b00000000000000000000001000000000 t
b11111111111111111111111101010000 u
b001 z
b11 |
1}
b00001010000100010010011000100011 "%
b00001 "(
b010 ")
b00 "*
1",
b01100 "-
b0100011 ".
b0000101000010001001001100 "/
b10000 "0
1"1
#3
0"1
#4
b00001011000000010000010000010011 #
b0000000011 %
b00000000000000010010000010110000 )
b00000000000000000000000111111000 *
b00000000000000000000000111111100 -
b00000000000000000000000000001100 .
b00000000000000000000000010101000 /
b00000000000000000000000010101000 5
b00000000000000000000000010101000 <
b00000000000000000000000010101000 =
b00001010100000010010000000000000 >
b001 ?
b000010101000 b
b00001010100000010010 c
b000010101000 d
b0000010101000 e
b000010010000010101000 f
b0111111100 h
b0101010000 j
b00000000000000000000000000001000 p
b01100 r
b00010 s
b00000000000000000000000101010000 t
b00000000000000000000000010101100 u
1x
b00000000000000000000000101010000 y
b101 z
b010 {
b00 |
0}
1~
b00001010100000010010010000100011 "%
b01000 "(
b01000 "-
b0000101010000001001001000 "/
b01100 "0
1"1
#5
0"1
#6
b11111001110001000000011110010011 #
b0000000100 %
b00000000000000000000000010110100 (
b00000000000000010000000010111100 )
b00000000000000000000001000000000 *
b00000000000000000000000101010000 +
b00000000000000000000000111111000 -
b00000000000000000000000000010000 .
b00000000000000000000000010110000 /
b00 3
b00000000000000000000000010110000 5
1:
b001 ;
b00000000000000000000000010110000 <
b00001011000000010000000000000000 >
b010 ?
b000010110000 b
b00001011000000010000 c
b000010000000010110000 f
b0111111000 h
b0111111100 j
b010 k
1m
b00000000000000000000000101010000 o
b00000000000000000000000000001100 p
b00010 q
b01000 r
b01100 s
b00000000000000000000000010101000 u
b00000000000000000000000111111100 y
0~
1"#
b00001011000000010000010000010011 "%
b10000 "(
b000 ")
0",
b0010011 ".
b0000101100000001000001000 "/
b01000 "0
1"1
#7
0"1
#8
b00000100000000000000011100010011 #
b0000000101 %
b11111111111111111111111110011110 (
b11111111111101000000011110101100 )
b00000000000000000000000110011100 *
b00000000000000000000000111111100 +
b00000000000000000000001000000000 -
b00000000000000000000000000010100 .
b11111111111111111111111110011100 /
b00000000000000000000000000000000 1
b00000000000000000000001000000000 4
b11111111111111111111111110011100 5
b00000000000000000000001000000000 6
b11111111111111111111111110011100 <
b11111111111111111111111110001111 =
b11111001110001000000000000000000 >
b011 ?
b00000000000000000000000101010000 C
b111110011100 b
b11111001110001000000 c
b111110001111 d
b1111110001110 e
b101000000011110011100 f
b1000000000 h
b0111111000 j
b00000000000000000000000111111100 o
b00000000000000000000000000010000 p
b01100 q
b01000 s
b00000000000000000000000010110000 u
0x
b00000000000000000000000111111000 y
b001 z
b000 {
1}
0"#
b11111001110001000000011110010011 "%
b01000 "'
b11100 "(
b11 "*
b01111 "-
b1111100111000100000001111 "/
b10000 "0
1"1
#9
0"1
#10
b00000000000001110000011000010011 #
b0000000110 %
b00000000000000000000000001100010 (
b00000000000000000000000001010100 )
b00000000000000000000000001000000 *
b00000000000000000000000111111000 +
b00000000000000000000000110011100 -
b00000000000000000000000000011000 .
b00000000000000000000000001000000 /
10
b00000000000000000000000000000000 4
b00000000000000000000000001000000 5
b00000000000000000000000000000000 6
b00000000000000000000000001000000 <
b00000000000000000000000001001110 =
b00000100000000000000000000000000 >
b000 ?
b000001000000 b
b00000100000000000000 c
b000001001110 d
b0000001001110 e
b000000000000001000000 f
b0110011100 h
b1000000000 j
b000 k
0m
b00000000000000000000000111111000 o
b00000000000000000000000000010100 p
b01000 q
b01111 r
b00000000000000000000001000000000 t
b11111111111111111111111110011100 u
b00000000000000000000001000000000 y
b11 |
1~
b00000100000000000000011100010011 "%
b00000 "'
b00000 "(
b00 "*
b01110 "-
b0000010000000000000001110 "/
b11100 "0
1"1
#11
0"1
#12
b00000000000000000000010110010011 #
b0000000111 %
b00000000000000000000000000100100 (
b00000000000001110000000000011000 )
b00000000000000000000001000000000 +
b00000000000000000000000001000000 -
b00000000000000000000000000011100 .
b00000000000000000000000000000000 /
00
b00000000000000000000000001000000 4
b00000000000000000000000000000000 5
b00000000000000000000000001000000 6
b00000000000000000000000000000000 <
b00000000000000000000000000001100 =
b00000000000001110000000000000000 >
b011 ?
b000000000000 b
b00000000000001110000 c
b000000001100 d
b0000000001100 e
b001110000000000000000 f
b0001000000 h
b0110011100 j
b00000000000000000000001000000000 o
b00000000000000000000000000011000 p
b01110 r
b01111 s
b00000000000000000000000000000000 t
b00000000000000000000000001000000 u
b00000000000000000000000110011100 y
b00 |
1"#
b00000000000001110000011000010011 "%
b01110 "'
b01100 "-
b0000000000000111000001100 "/
b00000 "0
1"1
#13
0"1
#14
b00000000000001111000010100010011 #
b0000001000 %
b00000000000000000000100000100110 (
b00000000000000000000000000011100 )
b00000000000000000000000000000000 *
b00000000000000000000000110011100 +
b00000000000000000000000000100000 .
10
b00000000000000000000000000000000 4
b00000000000000000000000000000000 6
b00000000000000000000000000001011 =
b00000000000000000000000000000000 >
b000 ?
b00000000000000000000001000000000 I
b00000000000000000000 c
b000000001011 d
b0100000001010 e
b000000000000000000000 f
b0001000000 j
b00000000000000000000000110011100 o
b00000000000000000000000000011100 p
b01111 q
b01100 r
b01110 s
b00000000000000000000000001000000 t
b00000000000000000000000000000000 u
b00000000000000000000000001000000 y
b00000000000000000000010110010011 "%
b00000 "'
b01011 "-
b0000000000000000000001011 "/
1"1
#15
0"1
#16
b00100100100000000000000011101111 #
b0000001001 %
b00000000000000000000000000101010 (
b00000000000001111000000000100000 )
b00000000000000000000000110011100 *
b00000000000000000000000001000000 +
b00000000000000000000000000000000 -
b00000000000000000000000000100100 .
00
b00000000000000000000000110011100 1
b00000000000000000000000110011100 4
b00000000000000000000000110011100 6
b00000000000000000000000000001010 =
b00000000000001111000000000000000 >
b00000000000000000000000110011100 P
b00000000000001111000 c
b000000001010 d
b0000000001010 e
b001111000000000000000 f
b0000000000 h
b00000000000000000000000001000000 o
b00000000000000000000000000100000 p
b01110 q
b01011 r
b01100 s
b00000000000000000000000000000000 t
b00000000000001111000010100010011 "%
b01111 "'
b01010 "-
b0000000000000111100001010 "/
1"1
#17
0"1
#18
b00000001011000000000011110010011 #
b0000001010 %
b10 &
b00000000000000000000101001100100 (
b00000000000000000000001001101100 )
b00000000000000000000001001001000 *
1,
b00000000000000000000000110011100 -
b00000000000000000000000000101000 .
b00000000000000000000001001001000 /
b00000000000000000000000000000000 1
b00000000000000000000001000000000 2
b00000000000000000000000000101000 4
b00000000000000000000001000000000 5
b00000000000000000000000000000000 6
b00000000000000000000001000000000 7
b10 8
09
b011 ;
b00000000000000000000001001001000 <
b00000000000000000000001001000001 =
b00100100100000000000000000000000 >
b00000000000000000000000001000000 O
b001001001000 b
b00100100100000000000 c
b001001000001 d
b0101001000000 e
b000000000001001001000 f
b0110011100 h
b0000000000 j
b00000000000000000000000000100100 p
b01100 q
b01010 r
b01011 s
b00000000000000000000000110011100 t
b00000000000000000000000000000000 y
b00100100100000000000000011101111 "%
b00000 "'
b01000 "(
b00001 "-
b1101111 ".
b0010010010000000000000001 "/
1"1
#19
0"1
#20
b00000000000000001000000001100111 #
b0010011011 %
b00 &
b00000000000000000000000000000000 (
b00000000000000000000000000000000 )
b00000000000000000000000000000000 *
b00000000000000000000000000000000 +
0,
b00000000000000000000000000101000 -
b00000000000000000000001001101100 .
b00000000000000000000000000000000 /
10
b00000000000000000000000000000000 2
b00000000000000000000000000000000 4
b00000000000000000000000000000000 5
b00000000000000000000000000000000 7
b00 8
0:
b000 ;
b00000000000000000000000000000000 <
b00000000000000000000000000000000 =
b00000000000000000000000000000000 >
b00000000000000000000000001000000 M
b000000000000 b
b00000000000000000000 c
b000000000000 d
b0000000000000 e
b000000000000000000000 f
b011111 g
b0000101000 h
b0110011100 j
b00000000000000000000001000000000 n
b00000000000000000000000000000000 o
b00000000000000000000000000000000 p
b01011 q
b00001 r
b01010 s
b00000000000000000000000000101000 t
b00000000000000000000001000000000 u
b00000000000000000000000110011100 y
b011 z
b00000000000000000000000000000000 "%
b00000 "(
b00000 "-
b0000000 ".
b0000000000000000000000000 "/
1"1
#21
0"1
#22
b00000000000000010000001110111100 #
b0010011100 %
b11 &
b00000000000000000000001001101100 (
b00000000000000001000001001101100 )
b00000000000000000000000000101000 *
b00000000000000000000000110011100 +
1,
b00000000000000000000000000000000 -
b00000000000000000000001001110000 .
00
b00000000000000000000001001110000 4
b00000000000000000000000000101000 6
b10 8
19
1:
b011 ;
b00000000000000001000000000000000 >
b001 ?
b00000000000000001000 c
b000001000000000000000 f
b000000 g
b0000000000 h
b00000000000000000000001000000000 i
b0000101000 j
b00000000000000000000000000000000 n
b00000000000000000000000110011100 o
b00000000000000000000001001101100 p
b01010 q
b00000 r
b00001 s
b00000000000000000000000000000000 t
b00000000000000000000000000000000 u
b00000000000000000000000000101000 y
b000 z
0}
b00000000000000001000000001100111 "%
b00001 "'
b1100111 ".
b0000000000000000100000000 "/
1"1
#23
0"1
#24
b00000001011000000000011110010011 #
b0000001010 %
b00 &
b00000000000000000000000000000000 (
b00000000000000000000000000000000 )
b00000000000000000000001001110000 *
b00000000000000000000000000101000 +
0,
b00000000000000000000001001110000 -
b00000000000000000000000000101000 .
10
b00000000000000000000001001110000 5
b00000000000000000000001001110000 6
b00000000000000000000001001110000 7
b00 8
09
0:
b000 ;
b00000000000000000000000000000000 >
b011 ?
b011 @
b00000000000000000000000110011100 K
b00000000000000000000 c
b000000000000000000000 f
b011111 g
b1001110000 h
b00000000000000000000000000000000 i
b0000000000 j
b00000000000000000000000000101000 o
b00000000000000000000000000000000 p
b00001 q
b00000 s
b00000000000000000000001001110000 t
b00000000000000000000000000000000 y
b011 z
1}
0~
b00000000000000000000000000000000 "%
b00000 "'
b0000000 ".
b0000000000000000000000000 "/
1"1
#25
0"1
